C:/Users/ASUS_USER/.st_workbench/projects/b-g431b-6step-hal/Src/stm32g4xx_mc_it.c:71:6:ADC1_2_IRQHandler	8	static
C:/Users/ASUS_USER/.st_workbench/projects/b-g431b-6step-hal/Src/stm32g4xx_mc_it.c:102:6:TIM4_IRQHandler	0	static
C:/Users/ASUS_USER/.st_workbench/projects/b-g431b-6step-hal/Src/stm32g4xx_mc_it.c:128:6:TIM1_UP_TIM16_IRQHandler	0	static
C:/Users/ASUS_USER/.st_workbench/projects/b-g431b-6step-hal/Src/stm32g4xx_mc_it.c:141:6:TIM1_BRK_TIM15_IRQHandler	8	static
C:/Users/ASUS_USER/.st_workbench/projects/b-g431b-6step-hal/Src/stm32g4xx_mc_it.c:175:6:DMA1_Channel1_IRQHandler	0	static
C:/Users/ASUS_USER/.st_workbench/projects/b-g431b-6step-hal/Src/stm32g4xx_mc_it.c:203:6:USART2_IRQHandler	8	static,ignoring_inline_asm
C:/Users/ASUS_USER/.st_workbench/projects/b-g431b-6step-hal/Src/stm32g4xx_mc_it.c:277:6:HardFault_Handler	8	static
C:/Users/ASUS_USER/.st_workbench/projects/b-g431b-6step-hal/Src/stm32g4xx_mc_it.c:295:6:SysTick_Handler	8	static
C:/Users/ASUS_USER/.st_workbench/projects/b-g431b-6step-hal/Src/stm32g4xx_mc_it.c:323:6:EXTI15_10_IRQHandler	0	static
