C:/Users/ASUS_USER/.st_workbench/projects/bingo-6-ll/MCSDK_v6.1.0-Full/MotorControl/MCSDK/MCLib/Any/Src/pwm_common_sixstep.c:51:6:PWMC_Clear	0	static
C:/Users/ASUS_USER/.st_workbench/projects/bingo-6-ll/MCSDK_v6.1.0-Full/MotorControl/MCSDK/MCLib/Any/Src/pwm_common_sixstep.c:59:13:PWMC_SwitchOffPWM	0	static
C:/Users/ASUS_USER/.st_workbench/projects/bingo-6-ll/MCSDK_v6.1.0-Full/MotorControl/MCSDK/MCLib/Any/Src/pwm_common_sixstep.c:68:13:PWMC_SwitchOnPWM	0	static
C:/Users/ASUS_USER/.st_workbench/projects/bingo-6-ll/MCSDK_v6.1.0-Full/MotorControl/MCSDK/MCLib/Any/Src/pwm_common_sixstep.c:78:13:PWMC_SetADCTriggerChannel	0	static
C:/Users/ASUS_USER/.st_workbench/projects/bingo-6-ll/MCSDK_v6.1.0-Full/MotorControl/MCSDK/MCLib/Any/Src/pwm_common_sixstep.c:92:13:PWMC_TurnOnLowSides	0	static
C:/Users/ASUS_USER/.st_workbench/projects/bingo-6-ll/MCSDK_v6.1.0-Full/MotorControl/MCSDK/MCLib/Any/Src/pwm_common_sixstep.c:100:17:PWMC_CheckOverCurrent	0	static
C:/Users/ASUS_USER/.st_workbench/projects/bingo-6-ll/MCSDK_v6.1.0-Full/MotorControl/MCSDK/MCLib/Any/Src/pwm_common_sixstep.c:114:13:PWMC_GetTurnOnLowSidesAction	0	static
C:/Users/ASUS_USER/.st_workbench/projects/bingo-6-ll/MCSDK_v6.1.0-Full/MotorControl/MCSDK/MCLib/Any/Src/pwm_common_sixstep.c:125:6:PWMC_SetAlignFlag	0	static
C:/Users/ASUS_USER/.st_workbench/projects/bingo-6-ll/MCSDK_v6.1.0-Full/MotorControl/MCSDK/MCLib/Any/Src/pwm_common_sixstep.c:137:13:PWMC_RegisterSwitchOffPwmCallBack	0	static
C:/Users/ASUS_USER/.st_workbench/projects/bingo-6-ll/MCSDK_v6.1.0-Full/MotorControl/MCSDK/MCLib/Any/Src/pwm_common_sixstep.c:150:13:PWMC_RegisterSwitchonPwmCallBack	0	static
C:/Users/ASUS_USER/.st_workbench/projects/bingo-6-ll/MCSDK_v6.1.0-Full/MotorControl/MCSDK/MCLib/Any/Src/pwm_common_sixstep.c:162:13:PWMC_RegisterTurnOnLowSidesCallBack	0	static
C:/Users/ASUS_USER/.st_workbench/projects/bingo-6-ll/MCSDK_v6.1.0-Full/MotorControl/MCSDK/MCLib/Any/Src/pwm_common_sixstep.c:174:13:PWMC_RegisterIsOverCurrentOccurredCallBack	0	static
C:/Users/ASUS_USER/.st_workbench/projects/bingo-6-ll/MCSDK_v6.1.0-Full/MotorControl/MCSDK/MCLib/Any/Src/pwm_common_sixstep.c:186:6:PWMC_ForceFastDemagTime	0	static
C:/Users/ASUS_USER/.st_workbench/projects/bingo-6-ll/MCSDK_v6.1.0-Full/MotorControl/MCSDK/MCLib/Any/Src/pwm_common_sixstep.c:197:6:PWMC_SetFastDemagState	0	static
C:/Users/ASUS_USER/.st_workbench/projects/bingo-6-ll/MCSDK_v6.1.0-Full/MotorControl/MCSDK/MCLib/Any/Src/pwm_common_sixstep.c:215:6:PWMC_SetQuasiSynchState	0	static
C:/Users/ASUS_USER/.st_workbench/projects/bingo-6-ll/MCSDK_v6.1.0-Full/MotorControl/MCSDK/MCLib/Any/Src/pwm_common_sixstep.c:232:9:PWMC_GetFastDemagState	0	static
C:/Users/ASUS_USER/.st_workbench/projects/bingo-6-ll/MCSDK_v6.1.0-Full/MotorControl/MCSDK/MCLib/Any/Src/pwm_common_sixstep.c:242:9:PWMC_GetQuasiSynchState	0	static
C:/Users/ASUS_USER/.st_workbench/projects/bingo-6-ll/MCSDK_v6.1.0-Full/MotorControl/MCSDK/MCLib/Any/Src/pwm_common_sixstep.c:252:17:PWMC_ElAngleToStep	0	static
