C:/Users/ASUS_USER/.st_workbench/projects/bingo-6-ll/MCSDK_v6.1.0-Full/MotorControl/MCSDK/MCLib/Any/Src/pwmc_6pwm.c:59:13:SixPwm_Init	4	static
C:/Users/ASUS_USER/.st_workbench/projects/bingo-6-ll/MCSDK_v6.1.0-Full/MotorControl/MCSDK/MCLib/Any/Src/pwmc_6pwm.c:115:13:PWMC_SetPhaseVoltage	0	static
C:/Users/ASUS_USER/.st_workbench/projects/bingo-6-ll/MCSDK_v6.1.0-Full/MotorControl/MCSDK/MCLib/Any/Src/pwmc_6pwm.c:493:13:SixPwm_ApplyNextStep	4	static
C:/Users/ASUS_USER/.st_workbench/projects/bingo-6-ll/MCSDK_v6.1.0-Full/MotorControl/MCSDK/MCLib/Any/Src/pwmc_6pwm.c:513:13:SixPwm_ResetOCPolarity	4	static
C:/Users/ASUS_USER/.st_workbench/projects/bingo-6-ll/MCSDK_v6.1.0-Full/MotorControl/MCSDK/MCLib/Any/Src/pwmc_6pwm.c:125:13:SixPwm_LoadNextStep	24	static
C:/Users/ASUS_USER/.st_workbench/projects/bingo-6-ll/MCSDK_v6.1.0-Full/MotorControl/MCSDK/MCLib/Any/Src/pwmc_6pwm.c:531:13:SixPwm_TurnOnLowSides	8	static
C:/Users/ASUS_USER/.st_workbench/projects/bingo-6-ll/MCSDK_v6.1.0-Full/MotorControl/MCSDK/MCLib/Any/Src/pwmc_6pwm.c:562:13:SixPwm_SwitchOnPWM	16	static
C:/Users/ASUS_USER/.st_workbench/projects/bingo-6-ll/MCSDK_v6.1.0-Full/MotorControl/MCSDK/MCLib/Any/Src/pwmc_6pwm.c:603:13:SixPwm_SetADCTriggerChannel	0	static
C:/Users/ASUS_USER/.st_workbench/projects/bingo-6-ll/MCSDK_v6.1.0-Full/MotorControl/MCSDK/MCLib/Any/Src/pwmc_6pwm.c:624:13:SixPwm_SwitchOffPWM	0	static
C:/Users/ASUS_USER/.st_workbench/projects/bingo-6-ll/MCSDK_v6.1.0-Full/MotorControl/MCSDK/MCLib/Any/Src/pwmc_6pwm.c:653:15:SixPwm_BRK_IRQHandler	0	static
C:/Users/ASUS_USER/.st_workbench/projects/bingo-6-ll/MCSDK_v6.1.0-Full/MotorControl/MCSDK/MCLib/Any/Src/pwmc_6pwm.c:667:17:SixPwm_IsOverCurrentOccurred	0	static
C:/Users/ASUS_USER/.st_workbench/projects/bingo-6-ll/MCSDK_v6.1.0-Full/MotorControl/MCSDK/MCLib/Any/Src/pwmc_6pwm.c:698:16:SixPwm_FastDemagFlag	0	static
C:/Users/ASUS_USER/.st_workbench/projects/bingo-6-ll/MCSDK_v6.1.0-Full/MotorControl/MCSDK/MCLib/Any/Src/pwmc_6pwm.c:716:16:SixPwm_QuasiSynchFlag	0	static
