C:/Users/ASUS_USER/.st_workbench/projects/bingo-6-ll/MCSDK_v6.1.0-Full/MotorControl/MCSDK/MCLib/Any/Src/r_divider_bus_voltage_sensor.c:74:13:RVBS_Clear	4	static
C:/Users/ASUS_USER/.st_workbench/projects/bingo-6-ll/MCSDK_v6.1.0-Full/MotorControl/MCSDK/MCLib/Any/Src/r_divider_bus_voltage_sensor.c:49:13:RVBS_Init	8	static
C:/Users/ASUS_USER/.st_workbench/projects/bingo-6-ll/MCSDK_v6.1.0-Full/MotorControl/MCSDK/MCLib/Any/Src/r_divider_bus_voltage_sensor.c:283:17:RVBS_CheckFaultState	0	static
C:/Users/ASUS_USER/.st_workbench/projects/bingo-6-ll/MCSDK_v6.1.0-Full/MotorControl/MCSDK/MCLib/Any/Src/r_divider_bus_voltage_sensor.c:165:17:RVBS_CalcAvVbusFilt	32	static
C:/Users/ASUS_USER/.st_workbench/projects/bingo-6-ll/MCSDK_v6.1.0-Full/MotorControl/MCSDK/MCLib/Any/Src/r_divider_bus_voltage_sensor.c:224:17:RVBS_CalcAvVbus	16	static
