C:/Users/ASUS_USER/.st_workbench/projects/bingo-6-ll/MCSDK_v6.1.0-Full/MotorControl/MCSDK/MCLib/Any/Src/revup_ctrl_sixstep.c:102:13:RUC_Init	0	static
C:/Users/ASUS_USER/.st_workbench/projects/bingo-6-ll/MCSDK_v6.1.0-Full/MotorControl/MCSDK/MCLib/Any/Src/revup_ctrl_sixstep.c:147:13:RUC_Clear	24	static
C:/Users/ASUS_USER/.st_workbench/projects/bingo-6-ll/MCSDK_v6.1.0-Full/MotorControl/MCSDK/MCLib/Any/Src/revup_ctrl_sixstep.c:200:13:RUC_UpdatePulse	8	static
C:/Users/ASUS_USER/.st_workbench/projects/bingo-6-ll/MCSDK_v6.1.0-Full/MotorControl/MCSDK/MCLib/Any/Src/revup_ctrl_sixstep.c:218:13:RUC_Exec	8	static
C:/Users/ASUS_USER/.st_workbench/projects/bingo-6-ll/MCSDK_v6.1.0-Full/MotorControl/MCSDK/MCLib/Any/Src/revup_ctrl_sixstep.c:276:9:RUC_IsAlignStageNow	0	static
C:/Users/ASUS_USER/.st_workbench/projects/bingo-6-ll/MCSDK_v6.1.0-Full/MotorControl/MCSDK/MCLib/Any/Src/revup_ctrl_sixstep.c:301:13:RUC_Completed	0	static
C:/Users/ASUS_USER/.st_workbench/projects/bingo-6-ll/MCSDK_v6.1.0-Full/MotorControl/MCSDK/MCLib/Any/Src/revup_ctrl_sixstep.c:323:13:RUC_Stop	16	static
C:/Users/ASUS_USER/.st_workbench/projects/bingo-6-ll/MCSDK_v6.1.0-Full/MotorControl/MCSDK/MCLib/Any/Src/revup_ctrl_sixstep.c:351:13:RUC_FirstAccelerationStageReached	8	static
C:/Users/ASUS_USER/.st_workbench/projects/bingo-6-ll/MCSDK_v6.1.0-Full/MotorControl/MCSDK/MCLib/Any/Src/revup_ctrl_sixstep.c:381:13:RUC_SetPhaseDurationms	0	static
C:/Users/ASUS_USER/.st_workbench/projects/bingo-6-ll/MCSDK_v6.1.0-Full/MotorControl/MCSDK/MCLib/Any/Src/revup_ctrl_sixstep.c:401:13:RUC_SetPhaseFinalMecSpeedUnit	0	static
C:/Users/ASUS_USER/.st_workbench/projects/bingo-6-ll/MCSDK_v6.1.0-Full/MotorControl/MCSDK/MCLib/Any/Src/revup_ctrl_sixstep.c:420:13:RUC_SetPhaseFinalPulse	0	static
C:/Users/ASUS_USER/.st_workbench/projects/bingo-6-ll/MCSDK_v6.1.0-Full/MotorControl/MCSDK/MCLib/Any/Src/revup_ctrl_sixstep.c:437:13:RUC_SetPhase	0	static
C:/Users/ASUS_USER/.st_workbench/projects/bingo-6-ll/MCSDK_v6.1.0-Full/MotorControl/MCSDK/MCLib/Any/Src/revup_ctrl_sixstep.c:461:17:RUC_GetPhaseDurationms	0	static
C:/Users/ASUS_USER/.st_workbench/projects/bingo-6-ll/MCSDK_v6.1.0-Full/MotorControl/MCSDK/MCLib/Any/Src/revup_ctrl_sixstep.c:473:16:RUC_GetPhaseFinalMecSpeedUnit	0	static
C:/Users/ASUS_USER/.st_workbench/projects/bingo-6-ll/MCSDK_v6.1.0-Full/MotorControl/MCSDK/MCLib/Any/Src/revup_ctrl_sixstep.c:485:16:RUC_GetPhaseFinalPulse	0	static
C:/Users/ASUS_USER/.st_workbench/projects/bingo-6-ll/MCSDK_v6.1.0-Full/MotorControl/MCSDK/MCLib/Any/Src/revup_ctrl_sixstep.c:495:16:RUC_GetNumberOfPhases	0	static
C:/Users/ASUS_USER/.st_workbench/projects/bingo-6-ll/MCSDK_v6.1.0-Full/MotorControl/MCSDK/MCLib/Any/Src/revup_ctrl_sixstep.c:505:13:RUC_GetPhase	4	static
C:/Users/ASUS_USER/.st_workbench/projects/bingo-6-ll/MCSDK_v6.1.0-Full/MotorControl/MCSDK/MCLib/Any/Src/revup_ctrl_sixstep.c:527:16:RUC_GetDirection	0	static
