C:/Users/ASUS_USER/.st_workbench/projects/bingo-6/MCSDK_v6.1.0-Full/MotorControl/MCSDK/MCLib/Any/Src/speed_pos_fdbk.c:62:16:SPD_GetElAngle	0	static
C:/Users/ASUS_USER/.st_workbench/projects/bingo-6/MCSDK_v6.1.0-Full/MotorControl/MCSDK/MCLib/Any/Src/speed_pos_fdbk.c:81:16:SPD_GetMecAngle	0	static
C:/Users/ASUS_USER/.st_workbench/projects/bingo-6/MCSDK_v6.1.0-Full/MotorControl/MCSDK/MCLib/Any/Src/speed_pos_fdbk.c:95:16:SPD_GetAvrgMecSpeedUnit	0	static
C:/Users/ASUS_USER/.st_workbench/projects/bingo-6/MCSDK_v6.1.0-Full/MotorControl/MCSDK/MCLib/Any/Src/speed_pos_fdbk.c:112:16:SPD_GetElSpeedDpp	0	static
C:/Users/ASUS_USER/.st_workbench/projects/bingo-6/MCSDK_v6.1.0-Full/MotorControl/MCSDK/MCLib/Any/Src/speed_pos_fdbk.c:136:16:SPD_GetInstElSpeedDpp	0	static
C:/Users/ASUS_USER/.st_workbench/projects/bingo-6/MCSDK_v6.1.0-Full/MotorControl/MCSDK/MCLib/Any/Src/speed_pos_fdbk.c:155:13:SPD_Check	0	static
C:/Users/ASUS_USER/.st_workbench/projects/bingo-6/MCSDK_v6.1.0-Full/MotorControl/MCSDK/MCLib/Any/Src/speed_pos_fdbk.c:192:13:SPD_IsMecSpeedReliable	4	static
C:/Users/ASUS_USER/.st_workbench/projects/bingo-6/MCSDK_v6.1.0-Full/MotorControl/MCSDK/MCLib/Any/Src/speed_pos_fdbk.c:287:16:SPD_GetS16Speed	0	static
C:/Users/ASUS_USER/.st_workbench/projects/bingo-6/MCSDK_v6.1.0-Full/MotorControl/MCSDK/MCLib/Any/Src/speed_pos_fdbk.c:315:16:SPD_GetElToMecRatio	0	static
C:/Users/ASUS_USER/.st_workbench/projects/bingo-6/MCSDK_v6.1.0-Full/MotorControl/MCSDK/MCLib/Any/Src/speed_pos_fdbk.c:331:13:SPD_SetElToMecRatio	0	static
