C:/Users/ASUS_USER/.st_workbench/projects/bingo-6/Src/register_interface.c:39:16:RI_SetRegCommandParser	72	static
C:/Users/ASUS_USER/.st_workbench/projects/bingo-6/Src/register_interface.c:113:16:RI_GetRegCommandParser	56	static
C:/Users/ASUS_USER/.st_workbench/projects/bingo-6/Src/register_interface.c:837:9:RI_GetIDSize	0	static
C:/Users/ASUS_USER/.st_workbench/projects/bingo-6/Src/register_interface.c:871:16:RI_GetPtrReg	0	static
