C:/Users/ASUS_USER/.st_workbench/projects/bingo-6/Src/stm32g4xx_hal_msp.c:68:6:HAL_MspInit	16	static
C:/Users/ASUS_USER/.st_workbench/projects/bingo-6/Src/stm32g4xx_hal_msp.c:98:6:HAL_ADC_MspInit	128	static
C:/Users/ASUS_USER/.st_workbench/projects/bingo-6/Src/stm32g4xx_hal_msp.c:193:6:HAL_ADC_MspDeInit	8	static
C:/Users/ASUS_USER/.st_workbench/projects/bingo-6/Src/stm32g4xx_hal_msp.c:268:6:HAL_TIM_Base_MspInit	8	static
C:/Users/ASUS_USER/.st_workbench/projects/bingo-6/Src/stm32g4xx_hal_msp.c:295:6:HAL_TIM_MspPostInit	56	static
C:/Users/ASUS_USER/.st_workbench/projects/bingo-6/Src/stm32g4xx_hal_msp.c:348:6:HAL_TIM_Base_MspDeInit	8	static
C:/Users/ASUS_USER/.st_workbench/projects/bingo-6/Src/stm32g4xx_hal_msp.c:388:6:HAL_UART_MspInit	112	static
C:/Users/ASUS_USER/.st_workbench/projects/bingo-6/Src/stm32g4xx_hal_msp.c:470:6:HAL_UART_MspDeInit	8	static
