C:/Users/ASUS_USER/.st_workbench/projects/b-g431b-6step-hal/MCSDK_v6.1.0-Full/MotorControl/MCSDK/MCLib/G4xx/Src/g4xx_bemf_ADC_fdbk.c:71:13:BADC_Init	32	static
C:/Users/ASUS_USER/.st_workbench/projects/b-g431b-6step-hal/MCSDK_v6.1.0-Full/MotorControl/MCSDK/MCLib/G4xx/Src/g4xx_bemf_ADC_fdbk.c:164:13:BADC_Clear	24	static
C:/Users/ASUS_USER/.st_workbench/projects/b-g431b-6step-hal/MCSDK_v6.1.0-Full/MotorControl/MCSDK/MCLib/G4xx/Src/g4xx_bemf_ADC_fdbk.c:200:13:BADC_SpeedMeasureOn	0	static
C:/Users/ASUS_USER/.st_workbench/projects/b-g431b-6step-hal/MCSDK_v6.1.0-Full/MotorControl/MCSDK/MCLib/G4xx/Src/g4xx_bemf_ADC_fdbk.c:212:13:BADC_SpeedMeasureOff	0	static
C:/Users/ASUS_USER/.st_workbench/projects/b-g431b-6step-hal/MCSDK_v6.1.0-Full/MotorControl/MCSDK/MCLib/G4xx/Src/g4xx_bemf_ADC_fdbk.c:224:13:BADC_Start	16	static
C:/Users/ASUS_USER/.st_workbench/projects/b-g431b-6step-hal/MCSDK_v6.1.0-Full/MotorControl/MCSDK/MCLib/G4xx/Src/g4xx_bemf_ADC_fdbk.c:277:13:BADC_Stop	12	static
C:/Users/ASUS_USER/.st_workbench/projects/b-g431b-6step-hal/MCSDK_v6.1.0-Full/MotorControl/MCSDK/MCLib/G4xx/Src/g4xx_bemf_ADC_fdbk.c:305:13:BADC_SetSamplingPoint	0	static
C:/Users/ASUS_USER/.st_workbench/projects/b-g431b-6step-hal/MCSDK_v6.1.0-Full/MotorControl/MCSDK/MCLib/G4xx/Src/g4xx_bemf_ADC_fdbk.c:339:13:BADC_IsZcDetected	32	static
C:/Users/ASUS_USER/.st_workbench/projects/b-g431b-6step-hal/MCSDK_v6.1.0-Full/MotorControl/MCSDK/MCLib/G4xx/Src/g4xx_bemf_ADC_fdbk.c:556:13:BADC_CalcAvrgMecSpeedUnit	24	static
C:/Users/ASUS_USER/.st_workbench/projects/b-g431b-6step-hal/MCSDK_v6.1.0-Full/MotorControl/MCSDK/MCLib/G4xx/Src/g4xx_bemf_ADC_fdbk.c:654:15:BADC_LfTim_UP_IRQHandler	4	static
C:/Users/ASUS_USER/.st_workbench/projects/b-g431b-6step-hal/MCSDK_v6.1.0-Full/MotorControl/MCSDK/MCLib/G4xx/Src/g4xx_bemf_ADC_fdbk.c:684:13:BADC_IsSpeedReliable	0	static
C:/Users/ASUS_USER/.st_workbench/projects/b-g431b-6step-hal/MCSDK_v6.1.0-Full/MotorControl/MCSDK/MCLib/G4xx/Src/g4xx_bemf_ADC_fdbk.c:706:6:BADC_IsPeriodReliable	0	static
C:/Users/ASUS_USER/.st_workbench/projects/b-g431b-6step-hal/MCSDK_v6.1.0-Full/MotorControl/MCSDK/MCLib/G4xx/Src/g4xx_bemf_ADC_fdbk.c:715:13:BADC_SetDirection	0	static
C:/Users/ASUS_USER/.st_workbench/projects/b-g431b-6step-hal/MCSDK_v6.1.0-Full/MotorControl/MCSDK/MCLib/G4xx/Src/g4xx_bemf_ADC_fdbk.c:737:13:BADC_IsObserverConverged	0	static
C:/Users/ASUS_USER/.st_workbench/projects/b-g431b-6step-hal/MCSDK_v6.1.0-Full/MotorControl/MCSDK/MCLib/G4xx/Src/g4xx_bemf_ADC_fdbk.c:750:6:BADC_SelectAdcChannel	0	static
C:/Users/ASUS_USER/.st_workbench/projects/b-g431b-6step-hal/MCSDK_v6.1.0-Full/MotorControl/MCSDK/MCLib/G4xx/Src/g4xx_bemf_ADC_fdbk.c:761:16:BADC_CalcElAngle	0	static
C:/Users/ASUS_USER/.st_workbench/projects/b-g431b-6step-hal/MCSDK_v6.1.0-Full/MotorControl/MCSDK/MCLib/G4xx/Src/g4xx_bemf_ADC_fdbk.c:780:13:BADC_CalcAvrgElSpeedDpp	0	static
C:/Users/ASUS_USER/.st_workbench/projects/b-g431b-6step-hal/MCSDK_v6.1.0-Full/MotorControl/MCSDK/MCLib/G4xx/Src/g4xx_bemf_ADC_fdbk.c:792:6:BADC_SetLfTimerRevUp	0	static
C:/Users/ASUS_USER/.st_workbench/projects/b-g431b-6step-hal/MCSDK_v6.1.0-Full/MotorControl/MCSDK/MCLib/G4xx/Src/g4xx_bemf_ADC_fdbk.c:815:6:BADC_CalcRevUpDemagTime	8	static
C:/Users/ASUS_USER/.st_workbench/projects/b-g431b-6step-hal/MCSDK_v6.1.0-Full/MotorControl/MCSDK/MCLib/G4xx/Src/g4xx_bemf_ADC_fdbk.c:846:6:BADC_CalcRunDemagTime	8	static
C:/Users/ASUS_USER/.st_workbench/projects/b-g431b-6step-hal/MCSDK_v6.1.0-Full/MotorControl/MCSDK/MCLib/G4xx/Src/g4xx_bemf_ADC_fdbk.c:873:6:BADC_SetLoopClosed	0	static
C:/Users/ASUS_USER/.st_workbench/projects/b-g431b-6step-hal/MCSDK_v6.1.0-Full/MotorControl/MCSDK/MCLib/G4xx/Src/g4xx_bemf_ADC_fdbk.c:884:10:BADC_GetLastBemfValue	0	static
C:/Users/ASUS_USER/.st_workbench/projects/b-g431b-6step-hal/MCSDK_v6.1.0-Full/MotorControl/MCSDK/MCLib/G4xx/Src/g4xx_bemf_ADC_fdbk.c:894:6:BADC_GetBemfZcrFlag	0	static
