C:/Users/ASUS_USER/.st_workbench/projects/bingo-6-ll/Drivers/STM32G4xx_HAL_Driver/Src/stm32g4xx_ll_gpio.c:108:13:LL_GPIO_DeInit	0	static
C:/Users/ASUS_USER/.st_workbench/projects/bingo-6-ll/Drivers/STM32G4xx_HAL_Driver/Src/stm32g4xx_ll_gpio.c:168:13:LL_GPIO_Init	36	static,ignoring_inline_asm
C:/Users/ASUS_USER/.st_workbench/projects/bingo-6-ll/Drivers/STM32G4xx_HAL_Driver/Src/stm32g4xx_ll_gpio.c:240:6:LL_GPIO_StructInit	0	static
