C:/Users/ASUS_USER/.st_workbench/projects/bingo-6-ll/Src/mc_api.c:69:13:MC_StartMotor1	0	static
C:/Users/ASUS_USER/.st_workbench/projects/bingo-6-ll/Src/mc_api.c:89:13:MC_StopMotor1	0	static
C:/Users/ASUS_USER/.st_workbench/projects/bingo-6-ll/Src/mc_api.c:125:13:MC_ProgramSpeedRampMotor1	4	static
C:/Users/ASUS_USER/.st_workbench/projects/bingo-6-ll/Src/mc_api.c:133:16:MCI_GetDutyCycleRefMotor1	8	static
C:/Users/ASUS_USER/.st_workbench/projects/bingo-6-ll/Src/mc_api.c:149:28:MC_GetCommandStateMotor1	0	static
C:/Users/ASUS_USER/.st_workbench/projects/bingo-6-ll/Src/mc_api.c:164:13:MC_StopSpeedRampMotor1	0	static
C:/Users/ASUS_USER/.st_workbench/projects/bingo-6-ll/Src/mc_api.c:175:13:MC_StopRampMotor1	0	static
C:/Users/ASUS_USER/.st_workbench/projects/bingo-6-ll/Src/mc_api.c:183:13:MC_HasRampCompletedMotor1	0	static
C:/Users/ASUS_USER/.st_workbench/projects/bingo-6-ll/Src/mc_api.c:191:16:MC_GetMecSpeedReferenceMotor1	0	static
C:/Users/ASUS_USER/.st_workbench/projects/bingo-6-ll/Src/mc_api.c:207:16:MC_GetMecSpeedAverageMotor1	0	static
C:/Users/ASUS_USER/.st_workbench/projects/bingo-6-ll/Src/mc_api.c:223:16:MC_GetLastRampFinalSpeedMotor1	0	static
C:/Users/ASUS_USER/.st_workbench/projects/bingo-6-ll/Src/mc_api.c:231:14:MC_GetLastRampFinalSpeedMotor1_F	0	static
C:/Users/ASUS_USER/.st_workbench/projects/bingo-6-ll/Src/mc_api.c:239:25:MC_GetControlModeMotor1	0	static
C:/Users/ASUS_USER/.st_workbench/projects/bingo-6-ll/Src/mc_api.c:255:16:MC_GetImposedDirectionMotor1	0	static
C:/Users/ASUS_USER/.st_workbench/projects/bingo-6-ll/Src/mc_api.c:263:13:MC_GetSpeedSensorReliabilityMotor1	0	static
C:/Users/ASUS_USER/.st_workbench/projects/bingo-6-ll/Src/mc_api.c:276:13:MC_AcknowledgeFaultMotor1	0	static
C:/Users/ASUS_USER/.st_workbench/projects/bingo-6-ll/Src/mc_api.c:290:17:MC_GetOccurredFaultsMotor1	0	static
C:/Users/ASUS_USER/.st_workbench/projects/bingo-6-ll/Src/mc_api.c:304:17:MC_GetCurrentFaultsMotor1	0	static
C:/Users/ASUS_USER/.st_workbench/projects/bingo-6-ll/Src/mc_api.c:312:21:MC_GetSTMStateMotor1	0	static
C:/Users/ASUS_USER/.st_workbench/projects/bingo-6-ll/Src/mc_api.c:320:16:MC_ProfilerCommand	0	static
