C:/Users/ASUS_USER/.st_workbench/projects/bingo-6-ll/Src/mc_interface.c:60:13:MCI_Init	0	static
C:/Users/ASUS_USER/.st_workbench/projects/bingo-6-ll/Src/mc_interface.c:102:13:MCI_ExecSpeedRamp	0	static
C:/Users/ASUS_USER/.st_workbench/projects/bingo-6-ll/Src/mc_interface.c:147:13:MCI_ExecSpeedRamp_F	8	static
C:/Users/ASUS_USER/.st_workbench/projects/bingo-6-ll/Src/mc_interface.c:298:13:MCI_FaultProcessing	0	static
C:/Users/ASUS_USER/.st_workbench/projects/bingo-6-ll/Src/mc_interface.c:315:13:MCI_ExecBufferedCommands	8	static
C:/Users/ASUS_USER/.st_workbench/projects/bingo-6-ll/Src/mc_interface.c:370:28:MCI_IsCommandAcknowledged	0	static
C:/Users/ASUS_USER/.st_workbench/projects/bingo-6-ll/Src/mc_interface.c:402:21:MCI_GetSTMState	0	static
C:/Users/ASUS_USER/.st_workbench/projects/bingo-6-ll/Src/mc_interface.c:418:17:MCI_GetOccurredFaults	0	static
C:/Users/ASUS_USER/.st_workbench/projects/bingo-6-ll/Src/mc_interface.c:432:17:MCI_GetCurrentFaults	0	static
C:/Users/ASUS_USER/.st_workbench/projects/bingo-6-ll/Src/mc_interface.c:194:13:MCI_StartMotor	8	static
C:/Users/ASUS_USER/.st_workbench/projects/bingo-6-ll/Src/mc_interface.c:230:13:MCI_StopMotor	16	static
C:/Users/ASUS_USER/.st_workbench/projects/bingo-6-ll/Src/mc_interface.c:271:13:MCI_FaultAcknowledged	8	static
C:/Users/ASUS_USER/.st_workbench/projects/bingo-6-ll/Src/mc_interface.c:448:17:MCI_GetFaultState	0	static
C:/Users/ASUS_USER/.st_workbench/projects/bingo-6-ll/Src/mc_interface.c:464:25:MCI_GetControlMode	0	static
C:/Users/ASUS_USER/.st_workbench/projects/bingo-6-ll/Src/mc_interface.c:480:16:MCI_GetImposedMotorDirection	0	static
C:/Users/ASUS_USER/.st_workbench/projects/bingo-6-ll/Src/mc_interface.c:518:16:MCI_GetLastRampFinalSpeed	0	static
C:/Users/ASUS_USER/.st_workbench/projects/bingo-6-ll/Src/mc_interface.c:543:17:MCI_GetLastRampFinalDuration	0	static
C:/Users/ASUS_USER/.st_workbench/projects/bingo-6-ll/Src/mc_interface.c:567:14:MCI_GetLastRampFinalSpeed_F	0	static
C:/Users/ASUS_USER/.st_workbench/projects/bingo-6-ll/Src/mc_interface.c:587:13:MCI_RampCompleted	8	static
C:/Users/ASUS_USER/.st_workbench/projects/bingo-6-ll/Src/mc_interface.c:620:13:MCI_StopSpeedRamp	0	static
C:/Users/ASUS_USER/.st_workbench/projects/bingo-6-ll/Src/mc_interface.c:633:13:MCI_StopRamp	0	static
C:/Users/ASUS_USER/.st_workbench/projects/bingo-6-ll/Src/mc_interface.c:657:13:MCI_GetSpdSensorReliability	8	static
C:/Users/ASUS_USER/.st_workbench/projects/bingo-6-ll/Src/mc_interface.c:683:16:MCI_GetAvrgMecSpeedUnit	8	static
C:/Users/ASUS_USER/.st_workbench/projects/bingo-6-ll/Src/mc_interface.c:707:14:MCI_GetAvrgMecSpeed_F	8	static
C:/Users/ASUS_USER/.st_workbench/projects/bingo-6-ll/Src/mc_interface.c:720:16:MCI_GetMecSpeedRefUnit	0	static
C:/Users/ASUS_USER/.st_workbench/projects/bingo-6-ll/Src/mc_interface.c:735:14:MCI_GetMecSpeedRef_F	8	static
C:/Users/ASUS_USER/.st_workbench/projects/bingo-6-ll/Src/mc_interface.c:746:17:MCI_GetDutyCycleRef	0	static
