C:/Users/ASUS_USER/.st_workbench/projects/bingo-6/Drivers/STM32G4xx_HAL_Driver/Src/stm32g4xx_hal_rcc_ex.c:123:19:HAL_RCCEx_PeriphCLKConfig	32	static
C:/Users/ASUS_USER/.st_workbench/projects/bingo-6/Drivers/STM32G4xx_HAL_Driver/Src/stm32g4xx_hal_rcc_ex.c:485:6:HAL_RCCEx_GetPeriphCLKConfig	0	static
C:/Users/ASUS_USER/.st_workbench/projects/bingo-6/Drivers/STM32G4xx_HAL_Driver/Src/stm32g4xx_hal_rcc_ex.c:648:10:HAL_RCCEx_GetPeriphCLKFreq	0	static
C:/Users/ASUS_USER/.st_workbench/projects/bingo-6/Drivers/STM32G4xx_HAL_Driver/Src/stm32g4xx_hal_rcc_ex.c:1286:6:HAL_RCCEx_EnableLSECSS	0	static
C:/Users/ASUS_USER/.st_workbench/projects/bingo-6/Drivers/STM32G4xx_HAL_Driver/Src/stm32g4xx_hal_rcc_ex.c:1296:6:HAL_RCCEx_DisableLSECSS	0	static
C:/Users/ASUS_USER/.st_workbench/projects/bingo-6/Drivers/STM32G4xx_HAL_Driver/Src/stm32g4xx_hal_rcc_ex.c:1309:6:HAL_RCCEx_EnableLSECSS_IT	0	static
C:/Users/ASUS_USER/.st_workbench/projects/bingo-6/Drivers/STM32G4xx_HAL_Driver/Src/stm32g4xx_hal_rcc_ex.c:1343:13:HAL_RCCEx_LSECSS_Callback	0	static
C:/Users/ASUS_USER/.st_workbench/projects/bingo-6/Drivers/STM32G4xx_HAL_Driver/Src/stm32g4xx_hal_rcc_ex.c:1326:6:HAL_RCCEx_LSECSS_IRQHandler	8	static
C:/Users/ASUS_USER/.st_workbench/projects/bingo-6/Drivers/STM32G4xx_HAL_Driver/Src/stm32g4xx_hal_rcc_ex.c:1358:6:HAL_RCCEx_EnableLSCO	48	static
C:/Users/ASUS_USER/.st_workbench/projects/bingo-6/Drivers/STM32G4xx_HAL_Driver/Src/stm32g4xx_hal_rcc_ex.c:1405:6:HAL_RCCEx_DisableLSCO	16	static
C:/Users/ASUS_USER/.st_workbench/projects/bingo-6/Drivers/STM32G4xx_HAL_Driver/Src/stm32g4xx_hal_rcc_ex.c:1513:6:HAL_RCCEx_CRSConfig	4	static
C:/Users/ASUS_USER/.st_workbench/projects/bingo-6/Drivers/STM32G4xx_HAL_Driver/Src/stm32g4xx_hal_rcc_ex.c:1555:6:HAL_RCCEx_CRSSoftwareSynchronizationGenerate	0	static
C:/Users/ASUS_USER/.st_workbench/projects/bingo-6/Drivers/STM32G4xx_HAL_Driver/Src/stm32g4xx_hal_rcc_ex.c:1565:6:HAL_RCCEx_CRSGetSynchronizationInfo	0	static
C:/Users/ASUS_USER/.st_workbench/projects/bingo-6/Drivers/STM32G4xx_HAL_Driver/Src/stm32g4xx_hal_rcc_ex.c:1598:10:HAL_RCCEx_CRSWaitSynchronization	24	static
C:/Users/ASUS_USER/.st_workbench/projects/bingo-6/Drivers/STM32G4xx_HAL_Driver/Src/stm32g4xx_hal_rcc_ex.c:1746:13:HAL_RCCEx_CRS_SyncOkCallback	0	static
C:/Users/ASUS_USER/.st_workbench/projects/bingo-6/Drivers/STM32G4xx_HAL_Driver/Src/stm32g4xx_hal_rcc_ex.c:1757:13:HAL_RCCEx_CRS_SyncWarnCallback	0	static
C:/Users/ASUS_USER/.st_workbench/projects/bingo-6/Drivers/STM32G4xx_HAL_Driver/Src/stm32g4xx_hal_rcc_ex.c:1768:13:HAL_RCCEx_CRS_ExpectedSyncCallback	0	static
C:/Users/ASUS_USER/.st_workbench/projects/bingo-6/Drivers/STM32G4xx_HAL_Driver/Src/stm32g4xx_hal_rcc_ex.c:1784:13:HAL_RCCEx_CRS_ErrorCallback	0	static
C:/Users/ASUS_USER/.st_workbench/projects/bingo-6/Drivers/STM32G4xx_HAL_Driver/Src/stm32g4xx_hal_rcc_ex.c:1681:6:HAL_RCCEx_CRS_IRQHandler	8	static
